<?xml version="1.0" encoding="UTF-8" standalone="no"?>
<!-- Created with Inkscape (http://www.inkscape.org/) -->

<svg
   width="808.79034mm"
   height="1031.7795mm"
   viewBox="0 0 808.79035 1031.7795"
   version="1.1"
   id="svg5"
   inkscape:version="1.1.1 (3bf5ae0d25, 2021-09-20)"
   sodipodi:docname="desegno.svg"
   xmlns:inkscape="http://www.inkscape.org/namespaces/inkscape"
   xmlns:sodipodi="http://sodipodi.sourceforge.net/DTD/sodipodi-0.dtd"
   xmlns:xlink="http://www.w3.org/1999/xlink"
   xmlns="http://www.w3.org/2000/svg"
   xmlns:svg="http://www.w3.org/2000/svg">
  <sodipodi:namedview
     id="namedview7"
     pagecolor="#505050"
     bordercolor="#eeeeee"
     borderopacity="1"
     inkscape:pageshadow="0"
     inkscape:pageopacity="0"
     inkscape:pagecheckerboard="0"
     inkscape:document-units="mm"
     showgrid="false"
     inkscape:snap-bbox="true"
     inkscape:bbox-paths="true"
     inkscape:bbox-nodes="true"
     inkscape:snap-bbox-edge-midpoints="true"
     inkscape:snap-bbox-midpoints="true"
     showguides="true"
     inkscape:guide-bbox="true"
     inkscape:zoom="0.125"
     inkscape:cx="1991.9999"
     inkscape:cy="1955.9999"
     inkscape:window-width="1920"
     inkscape:window-height="987"
     inkscape:window-x="-9"
     inkscape:window-y="-9"
     inkscape:window-maximized="1"
     inkscape:current-layer="layer1"
     inkscape:snap-global="true">
    <sodipodi:guide
       position="164.70416,1605.0376"
       orientation="0,-1"
       id="guide45305" />
    <sodipodi:guide
       position="164.70363,1543.6897"
       orientation="0,-1"
       id="guide45307" />
    <sodipodi:guide
       position="8.7047675,1095.9616"
       orientation="1,0"
       id="guide8675" />
    <sodipodi:guide
       position="800.08549,1100.4955"
       orientation="1,0"
       id="guide8677" />
    <sodipodi:guide
       position="124.46231,1014.6908"
       orientation="0,-1"
       id="guide8679" />
    <sodipodi:guide
       position="129.35476,1202.7026"
       orientation="0,-1"
       id="guide8681" />
    <sodipodi:guide
       position="224.60476,1014.6908"
       orientation="0,-1"
       id="guide18302" />
    <sodipodi:guide
       position="203.43809,826.67867"
       orientation="0,-1"
       id="guide18304" />
    <sodipodi:guide
       position="58.446425,890.01075"
       orientation="1,0"
       id="guide18306" />
    <sodipodi:guide
       position="164.70415,890.01075"
       orientation="1,0"
       id="guide18308" />
    <sodipodi:guide
       position="204.7852,540.62627"
       orientation="1,0"
       id="guide18310" />
    <sodipodi:guide
       position="750.34383,701.33729"
       orientation="1,0"
       id="guide18312" />
    <sodipodi:guide
       position="19.552687,-26.458376"
       orientation="0,-1"
       id="guide41103" />
    <sodipodi:guide
       position="290.97175,1061.7071"
       orientation="0,-1"
       id="guide16045" />
    <sodipodi:guide
       position="222.7444,1139.3708"
       orientation="0,-1"
       id="guide16047" />
    <sodipodi:guide
       position="222.7444,1078.4922"
       orientation="0,-1"
       id="guide16049" />
    <sodipodi:guide
       position="222.7444,890.48024"
       orientation="0,-1"
       id="guide16051" />
    <sodipodi:guide
       position="222.7444,951.35884"
       orientation="0,-1"
       id="guide16053" />
    <sodipodi:guide
       position="-96.537779,874.17529"
       orientation="0,-1"
       id="guide16055" />
    <sodipodi:guide
       position="302.01686,685.68279"
       orientation="0,-1"
       id="guide16057" />
    <sodipodi:guide
       position="222.7444,763.34649"
       orientation="0,-1"
       id="guide16059" />
    <sodipodi:guide
       position="264.75055,701.33729"
       orientation="0,-1"
       id="guide16061" />
  </sodipodi:namedview>
  <defs
     id="defs2">
    <rect
       x="622.50403"
       y="-568"
       width="2085.4958"
       height="476"
       id="rect20081" />
    <linearGradient
       inkscape:collect="always"
       id="linearGradient9776">
      <stop
         style="stop-color:#5500d4;stop-opacity:1"
         offset="0"
         id="stop9772" />
      <stop
         style="stop-color:#ff0066;stop-opacity:1"
         offset="1"
         id="stop9774" />
    </linearGradient>
    <inkscape:path-effect
       effect="powerclip"
       id="path-effect1849"
       is_visible="true"
       lpeversion="1"
       inverse="true"
       flatten="false"
       hide_clip="false"
       message="Füllregel Gerade-Ungerade im &lt;b&gt;Füllung und Kontur&lt;/b&gt;-Dialog verwenden, wenn das Anwenden des Ausschnitts mit nachfolgendem Umwandeln in Pfade kein Ergebnis bringt" />
    <inkscape:path-effect
       effect="powerclip"
       id="path-effect1758"
       is_visible="true"
       lpeversion="1"
       inverse="true"
       flatten="false"
       hide_clip="false"
       message="Füllregel Gerade-Ungerade im &lt;b&gt;Füllung und Kontur&lt;/b&gt;-Dialog verwenden, wenn das Anwenden des Ausschnitts mit nachfolgendem Umwandeln in Pfade kein Ergebnis bringt" />
    <inkscape:path-effect
       effect="powerclip"
       id="path-effect18424"
       is_visible="true"
       lpeversion="1"
       inverse="true"
       flatten="false"
       hide_clip="false"
       message="Füllregel Gerade-Ungerade im &lt;b&gt;Füllung und Kontur&lt;/b&gt;-Dialog verwenden, wenn das Anwenden des Ausschnitts mit nachfolgendem Umwandeln in Pfade kein Ergebnis bringt" />
    <inkscape:path-effect
       effect="powerclip"
       id="path-effect17458"
       is_visible="true"
       lpeversion="1"
       inverse="true"
       flatten="false"
       hide_clip="false"
       message="Füllregel Gerade-Ungerade im &lt;b&gt;Füllung und Kontur&lt;/b&gt;-Dialog verwenden, wenn das Anwenden des Ausschnitts mit nachfolgendem Umwandeln in Pfade kein Ergebnis bringt" />
    <rect
       x="978.90094"
       y="302.7301"
       width="662.9126"
       height="483.92621"
       id="rect21655" />
    <rect
       x="928.07764"
       y="223.18057"
       width="1226.3883"
       height="550.21747"
       id="rect8360" />
    <clipPath
       clipPathUnits="userSpaceOnUse"
       id="clipPath4902">
      <g
         id="g4936"
         transform="matrix(0.10065437,-0.04173738,0.04212542,0.0997272,43.885173,91.741789)"
         style="fill:#ffffff">
        <polygon
           points="630.8,391.4 499.3,10 364.1,388.3 10,391.4 301.1,633.1 196.5,990 499.3,773.3 802.2,990 697.5,635.4 990,391.4 "
           id="polygon4904"
           style="fill:#ffffff" />
        <g
           id="g4906"
           style="fill:#ffffff" />
        <g
           id="g4908"
           style="fill:#ffffff" />
        <g
           id="g4910"
           style="fill:#ffffff" />
        <g
           id="g4912"
           style="fill:#ffffff" />
        <g
           id="g4914"
           style="fill:#ffffff" />
        <g
           id="g4916"
           style="fill:#ffffff" />
        <g
           id="g4918"
           style="fill:#ffffff" />
        <g
           id="g4920"
           style="fill:#ffffff" />
        <g
           id="g4922"
           style="fill:#ffffff" />
        <g
           id="g4924"
           style="fill:#ffffff" />
        <g
           id="g4926"
           style="fill:#ffffff" />
        <g
           id="g4928"
           style="fill:#ffffff" />
        <g
           id="g4930"
           style="fill:#ffffff" />
        <g
           id="g4932"
           style="fill:#ffffff" />
        <g
           id="g4934"
           style="fill:#ffffff" />
      </g>
    </clipPath>
    <rect
       x="978.90094"
       y="302.7301"
       width="662.9126"
       height="483.92621"
       id="rect49862" />
    <rect
       x="978.90094"
       y="302.7301"
       width="662.9126"
       height="483.92621"
       id="rect50040" />
    <rect
       x="978.90094"
       y="302.7301"
       width="662.9126"
       height="483.92621"
       id="rect50240" />
    <linearGradient
       inkscape:collect="always"
       xlink:href="#linearGradient9776"
       id="linearGradient50242"
       gradientUnits="userSpaceOnUse"
       gradientTransform="matrix(1,0,0,-1,0,875.35489)"
       x1="102.56862"
       y1="180.73096"
       x2="102.56893"
       y2="58.035057" />
    <rect
       x="978.90094"
       y="302.7301"
       width="662.9126"
       height="483.92621"
       id="rect50975" />
    <rect
       x="978.90094"
       y="302.7301"
       width="662.9126"
       height="483.92621"
       id="rect7634" />
    <linearGradient
       inkscape:collect="always"
       xlink:href="#linearGradient9776"
       id="linearGradient11865"
       gradientUnits="userSpaceOnUse"
       gradientTransform="matrix(1,0,0,-1,5.5311838e-6,1063.3704)"
       x1="102.56862"
       y1="180.73096"
       x2="102.56893"
       y2="58.035057" />
    <clipPath
       clipPathUnits="userSpaceOnUse"
       id="clipPath17454">
      <path
         id="path17456"
         style="display:none;fill:#ffffff;stroke-width:5.49899;stroke-linecap:round;stroke-linejoin:round;paint-order:fill markers stroke"
         inkscape:transform-center-x="0.00048313775"
         inkscape:transform-center-y="-33.220714"
         d="m 91.77491,946.79685 c 4.932839,-3.58391 4.696566,-21.87072 10.79389,-21.87072 6.09732,0 5.861,18.28684 10.79381,21.87075 4.93284,3.58391 22.25162,-2.29174 24.13579,3.50718 1.88418,5.79888 -15.58065,11.22506 -17.46485,17.02396 -1.88418,5.7989 9.05571,20.45435 4.12287,24.03827 -4.93284,3.58391 -15.49038,-11.34936 -21.5877,-11.34936 -6.097323,0 -16.654886,14.93322 -21.587725,11.3493 -4.932812,-3.58391 6.0071,-18.23937 4.122923,-24.03827 -1.884178,-5.79887 -19.348977,-11.2251 -17.464797,-17.024 1.884183,-5.7989 19.20295,0.0768 24.135789,-3.50711 z" />
      <path
         id="lpe_path-effect17458"
         style="fill:#ffffff;stroke-width:5.49899;stroke-linecap:round;stroke-linejoin:round;paint-order:fill markers stroke"
         class="powerclip"
         d="M 44.439899,894.7263 H 160.69763 v 132.6959 H 44.439899 Z m 47.335011,52.07055 c -4.932839,3.58391 -22.251606,-2.29179 -24.135789,3.50711 -1.88418,5.7989 15.580619,11.22513 17.464797,17.024 1.884177,5.7989 -9.055735,20.45436 -4.122923,24.03827 4.932839,3.58392 15.490402,-11.3493 21.587725,-11.3493 6.09732,0 16.65486,14.93327 21.5877,11.34936 4.93284,-3.58392 -6.00705,-18.23937 -4.12287,-24.03827 1.8842,-5.7989 19.34903,-11.22508 17.46485,-17.02396 -1.88417,-5.79892 -19.20295,0.0767 -24.13579,-3.50718 -4.93281,-3.58391 -4.69649,-21.87075 -10.79381,-21.87075 -6.097324,0 -5.861051,18.28681 -10.79389,21.87072 z" />
    </clipPath>
    <linearGradient
       inkscape:collect="always"
       xlink:href="#linearGradient9776"
       id="linearGradient17486"
       x1="-867.06805"
       y1="-791.07898"
       x2="-867.06805"
       y2="0.30175781"
       gradientUnits="userSpaceOnUse"
       gradientTransform="matrix(1,0,0,1.021999,-170.92134,8.6981651)" />
    <clipPath
       clipPathUnits="userSpaceOnUse"
       id="clipath_lpe_path-effect18424">
      <path
         id="lpe_path-effect18424"
         style="fill:#ffffff;stroke-width:5.49899;stroke-linecap:round;stroke-linejoin:round;paint-order:fill markers stroke"
         class="powerclip"
         d="M 44.439899,894.7263 H 160.69763 v 132.6959 H 44.439899 Z m 47.335011,52.07055 c -4.932839,3.58391 -22.251606,-2.29179 -24.135789,3.50711 -1.88418,5.7989 15.580619,11.22513 17.464797,17.024 1.884177,5.7989 -9.055735,20.45436 -4.122923,24.03827 4.932839,3.58392 15.490402,-11.3493 21.587725,-11.3493 6.09732,0 16.65486,14.93327 21.5877,11.34936 4.93284,-3.58392 -6.00705,-18.23937 -4.12287,-24.03827 1.8842,-5.7989 19.34903,-11.22508 17.46485,-17.02396 -1.88417,-5.79892 -19.20295,0.0767 -24.13579,-3.50718 -4.93281,-3.58391 -4.69649,-21.87075 -10.79381,-21.87075 -6.097324,0 -5.861051,18.28681 -10.79389,21.87072 z" />
    </clipPath>
    <linearGradient
       inkscape:collect="always"
       xlink:href="#linearGradient9776"
       id="linearGradient27385"
       gradientUnits="userSpaceOnUse"
       gradientTransform="matrix(1,0,0,-1,191.25012,1468.5839)"
       x1="102.56862"
       y1="180.73096"
       x2="102.56893"
       y2="58.035057" />
    <linearGradient
       inkscape:collect="always"
       xlink:href="#linearGradient9776"
       id="linearGradient32859"
       gradientUnits="userSpaceOnUse"
       gradientTransform="matrix(1,0,0,-1,-4.8303076,1468.5839)"
       x1="102.56862"
       y1="180.73096"
       x2="102.56893"
       y2="58.035057" />
    <linearGradient
       inkscape:collect="always"
       xlink:href="#linearGradient9776"
       id="linearGradient33085"
       x1="391.85913"
       y1="1356.2063"
       x2="587.93958"
       y2="1356.2063"
       gradientUnits="userSpaceOnUse"
       gradientTransform="matrix(1,0,0,0.93331086,859.30158,-775.8627)" />
    <clipPath
       clipPathUnits="userSpaceOnUse"
       id="clipath_lpe_path-effect1758">
      <path
         id="path1760"
         style="display:block;fill:#ffffff;stroke-width:5.49899;stroke-linecap:round;stroke-linejoin:round;paint-order:fill markers stroke"
         inkscape:transform-center-x="0.00048313775"
         inkscape:transform-center-y="-33.220714"
         d="m 91.77491,946.79685 c 4.932839,-3.58391 4.696566,-21.87072 10.79389,-21.87072 6.09732,0 5.861,18.28684 10.79381,21.87075 4.93284,3.58391 22.25162,-2.29174 24.13579,3.50718 1.88418,5.79888 -15.58065,11.22506 -17.46485,17.02396 -1.88418,5.7989 9.05571,20.45435 4.12287,24.03827 -4.93284,3.58391 -15.49038,-11.34936 -21.5877,-11.34936 -6.097323,0 -16.654886,14.93322 -21.587725,11.3493 -4.932812,-3.58391 6.0071,-18.23937 4.122923,-24.03827 -1.884178,-5.79887 -19.348977,-11.2251 -17.464797,-17.024 1.884183,-5.7989 19.20295,0.0768 24.135789,-3.50711 z" />
    </clipPath>
    <clipPath
       clipPathUnits="userSpaceOnUse"
       id="clipath_lpe_path-effect1849">
      <path
         id="path1851"
         style="display:none;fill:#ffffff;stroke-width:5.49899;stroke-linecap:round;stroke-linejoin:round;paint-order:fill markers stroke"
         inkscape:transform-center-x="0.00048313775"
         inkscape:transform-center-y="-33.220714"
         d="m 91.77491,946.79685 c 4.932839,-3.58391 4.696566,-21.87072 10.79389,-21.87072 6.09732,0 5.861,18.28684 10.79381,21.87075 4.93284,3.58391 22.25162,-2.29174 24.13579,3.50718 1.88418,5.79888 -15.58065,11.22506 -17.46485,17.02396 -1.88418,5.7989 9.05571,20.45435 4.12287,24.03827 -4.93284,3.58391 -15.49038,-11.34936 -21.5877,-11.34936 -6.097323,0 -16.654886,14.93322 -21.587725,11.3493 -4.932812,-3.58391 6.0071,-18.23937 4.122923,-24.03827 -1.884178,-5.79887 -19.348977,-11.2251 -17.464797,-17.024 1.884183,-5.7989 19.20295,0.0768 24.135789,-3.50711 z" />
      <path
         id="lpe_path-effect1849"
         style="fill:#ffffff;stroke-width:5.49899;stroke-linecap:round;stroke-linejoin:round;paint-order:fill markers stroke"
         class="powerclip"
         d="M 44.439899,894.7263 H 160.69763 v 132.6959 H 44.439899 Z m 47.335011,52.07055 c -4.932839,3.58391 -22.251606,-2.29179 -24.135789,3.50711 -1.88418,5.7989 15.580619,11.22513 17.464797,17.024 1.884177,5.7989 -9.055735,20.45436 -4.122923,24.03827 4.932839,3.58392 15.490402,-11.3493 21.587725,-11.3493 6.09732,0 16.65486,14.93327 21.5877,11.34936 4.93284,-3.58392 -6.00705,-18.23937 -4.12287,-24.03827 1.8842,-5.7989 19.34903,-11.22508 17.46485,-17.02396 -1.88417,-5.79892 -19.20295,0.0767 -24.13579,-3.50718 -4.93281,-3.58391 -4.69649,-21.87075 -10.79381,-21.87075 -6.097324,0 -5.861051,18.28681 -10.79389,21.87072 z" />
    </clipPath>
    <rect
       x="622.50403"
       y="-568"
       width="2085.4958"
       height="476"
       id="rect32486" />
    <rect
       x="622.50403"
       y="-568"
       width="2085.4958"
       height="476"
       id="rect32590" />
  </defs>
  <g
     inkscape:label="Ebene 1"
     inkscape:groupmode="layer"
     id="layer1"
     transform="translate(9.0065308,-661.96715)">
    <rect
       style="fill:#212121;fill-opacity:1;stroke-width:7.84917;stroke-linecap:round;stroke-linejoin:round;paint-order:fill markers stroke"
       id="rect8593"
       width="188.01216"
       height="808.79034"
       x="-849.97931"
       y="-799.78381"
       ry="0"
       transform="matrix(0,-1,-1,0,0,0)"
       inkscape:export-filename="C:\Users\Jonas\Desktop\desegno.png"
       inkscape:export-xdpi="22.338326"
       inkscape:export-ydpi="22.338326" />
    <text
       xml:space="preserve"
       transform="matrix(0.4529658,0,0,0.4529658,-91.847321,964.41666)"
       id="text20079"
       style="font-size:192px;line-height:1.25;font-family:sans-serif;white-space:pre;shape-inside:url(#rect20081);fill:#ffffff"><tspan
         x="622.50391"
         y="-393.49608"
         id="tspan1500"><tspan
           style="font-weight:500;font-family:'MADE TOMMY';-inkscape-font-specification:'MADE TOMMY Medium'"
           id="tspan1498">EsperoNova</tspan></tspan></text>
    <rect
       style="fill:#3cc600;fill-opacity:1;stroke-width:5.49899;stroke-linecap:round;stroke-linejoin:round;paint-order:fill markers stroke"
       id="rect3716"
       width="37.041668"
       height="37.041668"
       x="1545.5801"
       y="-36.73991"
       ry="18.520834"
       transform="rotate(90)"
       inkscape:export-filename="C:\Users\Jonas\Desktop\desegno.png"
       inkscape:export-xdpi="22.338326"
       inkscape:export-ydpi="22.338326" />
    <rect
       style="fill:#009bd3;fill-opacity:1;stroke-width:5.49899;stroke-linecap:round;stroke-linejoin:round;paint-order:fill markers stroke"
       id="rect1229"
       width="37.041668"
       height="37.041668"
       x="1582.6217"
       y="-36.73991"
       ry="18.520834"
       transform="rotate(90)"
       inkscape:export-filename="C:\Users\Jonas\Desktop\desegno.png"
       inkscape:export-xdpi="22.338326"
       inkscape:export-ydpi="22.338326" />
    <text
       xml:space="preserve"
       transform="scale(0.26458333)"
       id="text8358"
       style="font-size:85.3333px;line-height:1.25;font-family:sans-serif;white-space:pre;shape-inside:url(#rect8360);fill:#9ebb6a;fill-opacity:0.0627451" />
    <path
       style="fill:url(#linearGradient50242);fill-opacity:1;stroke:none;stroke-width:0.264583px;stroke-linecap:butt;stroke-linejoin:miter;stroke-opacity:1"
       d="m 102.56893,817.31983 53.1287,-30.67398 -5.3e-4,-61.34795 -53.1283,-30.674 -53.128901,30.674 v 61.34795 z"
       id="path50232"
       inkscape:export-filename="C:\Users\Jonas\Desktop\desegno.png"
       inkscape:export-xdpi="22.338326"
       inkscape:export-ydpi="22.338326" />
    <rect
       style="font-size:96px;line-height:1.25;white-space:pre;fill:#ff0066;fill-opacity:1;stroke-width:5.54723;stroke-linecap:round;stroke-linejoin:round;paint-order:fill markers stroke"
       id="rect3865"
       width="37.36655"
       height="37.36655"
       x="1582.2969"
       y="-83.102333"
       ry="18.683275"
       transform="rotate(90)"
       inkscape:export-filename="C:\Users\Jonas\Desktop\desegno.png"
       inkscape:export-xdpi="22.338326"
       inkscape:export-ydpi="22.338326" />
    <rect
       style="font-size:96px;line-height:1.25;white-space:pre;fill:#5500d4;fill-opacity:1;stroke-width:5.54723;stroke-linecap:round;stroke-linejoin:round;paint-order:fill markers stroke"
       id="rect3867"
       width="37.36655"
       height="37.36655"
       x="1544.9304"
       y="-83.102333"
       ry="18.683275"
       transform="rotate(90)"
       inkscape:export-filename="C:\Users\Jonas\Desktop\desegno.png"
       inkscape:export-xdpi="22.338326"
       inkscape:export-ydpi="22.338326" />
    <path
       id="path50238"
       style="fill:#ffffff;stroke-width:5.499;stroke-linecap:round;stroke-linejoin:round;paint-order:fill markers stroke"
       inkscape:transform-center-x="0.00048313775"
       inkscape:transform-center-y="-33.220714"
       d="m 91.774914,741.6945 c 4.932837,-3.58391 4.696564,-21.87073 10.793876,-21.87072 6.09732,0 5.861,18.28682 10.79383,21.87074 4.93283,3.58392 22.25161,-2.29173 24.13578,3.50717 1.88417,5.79889 -15.58066,11.22508 -17.46484,17.02397 -1.88418,5.79889 9.05569,20.45436 4.12286,24.03827 -4.93284,3.5839 -15.49038,-11.34935 -21.5877,-11.34936 -6.097312,-10e-6 -16.654887,14.93322 -21.587715,11.3493 -4.932828,-3.58392 6.007082,-18.23936 4.122916,-24.03826 -1.884169,-5.79889 -19.348981,-11.22512 -17.4648,-17.02401 1.884182,-5.79889 19.202955,0.0768 24.135793,-3.5071 z"
       inkscape:export-filename="C:\Users\Jonas\Desktop\desegno.png"
       inkscape:export-xdpi="22.338326"
       inkscape:export-ydpi="22.338326" />
    <rect
       style="fill:#ffffff;stroke-width:5.49899;stroke-linecap:round;stroke-linejoin:round;paint-order:fill markers stroke"
       id="rect1147"
       width="37.041668"
       height="37.041668"
       x="1619.6635"
       y="-36.73991"
       ry="18.520834"
       transform="rotate(90)"
       inkscape:export-filename="C:\Users\Jonas\Desktop\desegno.png"
       inkscape:export-xdpi="22.338326"
       inkscape:export-ydpi="22.338326" />
    <text
       xml:space="preserve"
       transform="matrix(1.5369084,0,0,1.5369084,-1507.5829,1014.1275)"
       id="text7632"
       style="font-size:28.0374px;line-height:1.25;font-family:sans-serif;white-space:pre;shape-inside:url(#rect7634);fill:#000000"
       inkscape:export-filename="C:\Users\Jonas\Desktop\desegno.png"
       inkscape:export-xdpi="22.338326"
       inkscape:export-ydpi="22.338326"><tspan
         x="978.90039"
         y="328.21295"
         id="tspan1504"><tspan
           style="font-weight:500;font-family:'MADE TOMMY';-inkscape-font-specification:'MADE TOMMY Medium'"
           id="tspan1502">DESEGNO POR ESPERONOVA</tspan></tspan></text>
    <rect
       style="fill:#212121;fill-opacity:1;stroke-width:5.49899;stroke-linecap:round;stroke-linejoin:round;paint-order:fill markers stroke"
       id="rect8043"
       width="37.041668"
       height="37.041668"
       x="1656.7051"
       y="-73.781586"
       ry="18.520834"
       transform="rotate(90)"
       inkscape:export-filename="C:\Users\Jonas\Desktop\desegno.png"
       inkscape:export-xdpi="22.338326"
       inkscape:export-ydpi="22.338326" />
    <rect
       style="fill:#f2f2f2;fill-opacity:1;stroke-width:5.49899;stroke-linecap:round;stroke-linejoin:round;paint-order:fill markers stroke"
       id="rect8315"
       width="37.041668"
       height="37.041668"
       x="1619.6635"
       y="-73.781586"
       ry="18.520834"
       transform="rotate(90)"
       inkscape:export-filename="C:\Users\Jonas\Desktop\desegno.png"
       inkscape:export-xdpi="22.338326"
       inkscape:export-ydpi="22.338326" />
    <rect
       style="fill:#000000;fill-opacity:1;stroke-width:5.49899;stroke-linecap:round;stroke-linejoin:round;paint-order:fill markers stroke"
       id="rect8515"
       width="37.041668"
       height="37.041668"
       x="1656.7051"
       y="-36.73991"
       ry="18.520834"
       transform="rotate(90)"
       inkscape:export-filename="C:\Users\Jonas\Desktop\desegno.png"
       inkscape:export-xdpi="22.338326"
       inkscape:export-ydpi="22.338326" />
    <rect
       style="fill:#f2f2f2;fill-opacity:1;stroke-width:7.84917;stroke-linecap:round;stroke-linejoin:round;paint-order:fill markers stroke"
       id="rect11814"
       width="188.01216"
       height="808.79034"
       x="-1037.9917"
       y="-799.78381"
       ry="0"
       transform="matrix(0,-1,-1,0,0,0)"
       inkscape:export-filename="C:\Users\Jonas\Desktop\desegno.png"
       inkscape:export-xdpi="22.338326"
       inkscape:export-ydpi="22.338326" />
    <path
       style="fill:url(#linearGradient11865);fill-opacity:1;stroke:none;stroke-width:0.264583px;stroke-linecap:butt;stroke-linejoin:miter;stroke-opacity:1"
       d="m 102.56894,1005.3321 53.1287,-30.67429 -5.3e-4,-61.34795 -53.1283,-30.674 -53.128905,30.674 v 61.34795 z"
       id="path11833" />
    <path
       id="path11861"
       style="fill:#ffffff;stroke-width:5.499;stroke-linecap:round;stroke-linejoin:round;paint-order:fill markers stroke"
       inkscape:transform-center-x="0.00048313775"
       inkscape:transform-center-y="-33.220714"
       d="m 91.774924,929.70646 c 4.932837,-3.58391 4.696564,-21.87073 10.793876,-21.87072 6.09732,0 5.861,18.28682 10.79383,21.87074 4.93283,3.58392 22.25161,-2.29173 24.13578,3.50717 1.88417,5.79889 -15.58066,11.22508 -17.46484,17.02397 -1.88418,5.79889 9.05569,20.45436 4.12286,24.03827 -4.93284,3.5839 -15.49038,-11.34935 -21.5877,-11.34936 -6.097312,-10e-6 -16.654887,14.93322 -21.587715,11.3493 -4.932828,-3.58392 6.007082,-18.23936 4.122916,-24.03826 -1.884169,-5.79889 -19.348981,-11.22512 -17.4648,-17.02401 1.884182,-5.79889 19.202955,0.0768 24.135793,-3.5071 z" />
    <rect
       style="fill:url(#linearGradient17486);fill-opacity:1;stroke-width:7.84917;stroke-linecap:round;stroke-linejoin:round;paint-order:fill markers stroke"
       id="rect17403"
       width="188.01216"
       height="808.79034"
       x="-1226.0037"
       y="-799.78381"
       ry="0"
       transform="matrix(0,-1,-1,0,0,0)"
       inkscape:export-filename="C:\Users\Jonas\Desktop\desegno.png"
       inkscape:export-xdpi="22.338326"
       inkscape:export-ydpi="22.338326" />
    <path
       style="fill:#ffffff;fill-opacity:1;stroke:none;stroke-width:0.264583px;stroke-linecap:butt;stroke-linejoin:miter;stroke-opacity:1"
       d="m 102.56893,1022.4222 53.1287,-30.67395 -5.3e-4,-61.34795 -53.1283,-30.674 -53.128901,30.674 v 61.34795 z"
       id="path17405"
       clip-path="url(#clipPath17454)"
       inkscape:path-effect="#path-effect17458"
       inkscape:original-d="m 102.56893,1022.4222 53.1287,-30.67395 -5.3e-4,-61.34795 -53.1283,-30.674 -53.128901,30.674 v 61.34795 z"
       inkscape:export-filename="C:\Users\Jonas\Desktop\desegno.png"
       inkscape:export-xdpi="22.338326"
       inkscape:export-ydpi="22.338326"
       transform="translate(0,170.92134)" />
    <rect
       style="fill:#f2f2f2;fill-opacity:1;stroke-width:5.31247;stroke-linecap:round;stroke-linejoin:round;paint-order:fill markers stroke"
       id="rect27299"
       width="196.08043"
       height="196.08043"
       x="195.77867"
       y="1251.1606"
       inkscape:export-filename="C:\Users\Jonas\Desktop\desegno.png"
       inkscape:export-xdpi="22.338326"
       inkscape:export-ydpi="22.338326" />
    <path
       style="fill:url(#linearGradient27385);fill-opacity:1;stroke:none;stroke-width:0.264583px;stroke-linecap:butt;stroke-linejoin:miter;stroke-opacity:1"
       d="m 293.81905,1410.5489 53.1287,-30.674 -5.3e-4,-61.348 -53.1283,-30.674 -53.1289,30.674 v 61.348 z"
       id="path27381"
       inkscape:export-filename="C:\Users\Jonas\Desktop\desegno.png"
       inkscape:export-xdpi="22.338326"
       inkscape:export-ydpi="22.338326" />
    <path
       id="path27383"
       style="fill:#ffffff;stroke-width:5.499;stroke-linecap:round;stroke-linejoin:round;paint-order:fill markers stroke"
       inkscape:transform-center-x="0.00048313775"
       inkscape:transform-center-y="-33.220714"
       d="m 283.02504,1334.9235 c 4.93283,-3.5839 4.69656,-21.8707 10.79387,-21.8707 6.09732,0 5.861,18.2868 10.79383,21.8708 4.93283,3.5839 22.25161,-2.2918 24.13578,3.5071 1.88417,5.7989 -15.58066,11.2251 -17.46484,17.024 -1.88418,5.7989 9.05569,20.4544 4.12286,24.0383 -4.93284,3.5839 -15.49038,-11.3494 -21.5877,-11.3494 -6.09731,0 -16.65489,14.9332 -21.58771,11.3493 -4.93283,-3.5839 6.00708,-18.2393 4.12291,-24.0382 -1.88417,-5.7989 -19.34898,-11.2252 -17.4648,-17.0241 1.88418,-5.7988 19.20296,0.077 24.1358,-3.5071 z"
       inkscape:export-filename="C:\Users\Jonas\Desktop\desegno.png"
       inkscape:export-xdpi="22.338326"
       inkscape:export-ydpi="22.338326" />
    <rect
       style="fill:#212121;fill-opacity:1;stroke-width:5.31247;stroke-linecap:round;stroke-linejoin:round;paint-order:fill markers stroke"
       id="rect27387"
       width="196.08043"
       height="196.08043"
       x="-0.30175781"
       y="1251.1606"
       inkscape:export-filename="C:\Users\Jonas\Desktop\desegno.png"
       inkscape:export-xdpi="22.338326"
       inkscape:export-ydpi="22.338326" />
    <path
       style="fill:url(#linearGradient32859);fill-opacity:1;stroke:none;stroke-width:0.264583px;stroke-linecap:butt;stroke-linejoin:miter;stroke-opacity:1"
       d="m 97.738623,1410.5489 53.128697,-30.674 -5.3e-4,-61.348 -53.128297,-30.674 -53.1289,30.674 v 61.348 z"
       id="path32855"
       inkscape:export-filename="C:\Users\Jonas\Desktop\desegno.png"
       inkscape:export-xdpi="22.338326"
       inkscape:export-ydpi="22.338326" />
    <path
       id="path32857"
       style="fill:#ffffff;stroke-width:5.499;stroke-linecap:round;stroke-linejoin:round;paint-order:fill markers stroke"
       inkscape:transform-center-x="0.00048313775"
       inkscape:transform-center-y="-33.220714"
       d="m 86.944613,1334.9235 c 4.93283,-3.5839 4.69656,-21.8707 10.79387,-21.8707 6.097317,0 5.860997,18.2868 10.793827,21.8708 4.93283,3.5839 22.25161,-2.2918 24.13578,3.5071 1.88417,5.7989 -15.58066,11.2251 -17.46484,17.024 -1.88418,5.7989 9.05569,20.4544 4.12286,24.0383 -4.93284,3.5839 -15.49038,-11.3494 -21.587697,-11.3494 -6.09731,0 -16.65489,14.9332 -21.58771,11.3493 -4.93283,-3.5839 6.00708,-18.2393 4.12291,-24.0382 -1.88417,-5.7989 -19.34898,-11.2252 -17.4648,-17.0241 1.88418,-5.7988 19.20296,0.077 24.1358,-3.5071 z"
       inkscape:export-filename="C:\Users\Jonas\Desktop\desegno.png"
       inkscape:export-xdpi="22.338326"
       inkscape:export-ydpi="22.338326" />
    <rect
       style="fill:url(#linearGradient33085);fill-opacity:1;stroke-width:5.31247;stroke-linecap:round;stroke-linejoin:round;paint-order:fill markers stroke"
       id="rect32861"
       width="196.08043"
       height="196.08043"
       x="1251.1606"
       y="391.85913"
       transform="matrix(0,1,1,0,0,0)"
       inkscape:export-filename="C:\Users\Jonas\Desktop\desegno.png"
       inkscape:export-xdpi="22.338326"
       inkscape:export-ydpi="22.338326" />
    <path
       style="fill:#ffffff;fill-opacity:1;stroke:none;stroke-width:0.264583px;stroke-linecap:butt;stroke-linejoin:miter;stroke-opacity:1"
       d="m 102.56893,1022.4222 53.1287,-30.67395 -5.3e-4,-61.34795 -53.1283,-30.674 -53.128901,30.674 v 61.34795 z"
       id="path1845"
       clip-path="url(#clipath_lpe_path-effect1849)"
       inkscape:path-effect="#path-effect1849"
       inkscape:original-d="m 102.56893,1022.4222 53.1287,-30.67395 -5.3e-4,-61.34795 -53.1283,-30.674 -53.128901,30.674 v 61.34795 z"
       inkscape:export-filename="C:\Users\Jonas\Desktop\desegno.png"
       inkscape:export-xdpi="22.338326"
       inkscape:export-ydpi="22.338326"
       transform="translate(387.33058,388.12661)" />
    <text
       xml:space="preserve"
       transform="matrix(0.4529658,0,0,0.4529658,-91.847321,1152.4372)"
       id="text32484"
       style="font-size:192px;line-height:1.25;font-family:sans-serif;white-space:pre;shape-inside:url(#rect32486);fill:#000000"><tspan
         x="622.50391"
         y="-393.49608"
         id="tspan1508"><tspan
           style="font-weight:500;font-family:'MADE TOMMY';-inkscape-font-specification:'MADE TOMMY Medium'"
           id="tspan1506">EsperoNova</tspan></tspan></text>
    <text
       xml:space="preserve"
       transform="matrix(0.4529658,0,0,0.4529658,-91.847321,1340.4507)"
       id="text32588"
       style="font-size:192px;line-height:1.25;font-family:sans-serif;white-space:pre;shape-inside:url(#rect32590);fill:#ffffff"><tspan
         x="622.50391"
         y="-393.49608"
         id="tspan1512"><tspan
           style="font-weight:500;font-family:'MADE TOMMY';-inkscape-font-specification:'MADE TOMMY Medium'"
           id="tspan1510">EsperoNova</tspan></tspan></text>
  </g>
</svg>
