<?xml version="1.0" encoding="UTF-8" standalone="no"?>
<!-- Created with Inkscape (http://www.inkscape.org/) -->

<svg
   width="613.88574mm"
   height="122.6959mm"
   viewBox="0 0 613.88574 122.6959"
   version="1.1"
   id="svg5"
   inkscape:export-filename="C:\Users\Jonas\Desktop\Jonizulo\EsperoNova\emblemoj\emblemo kun teksto\kolore nigre.png"
   inkscape:export-xdpi="103.50792"
   inkscape:export-ydpi="103.50792"
   inkscape:version="1.1.1 (3bf5ae0d25, 2021-09-20)"
   sodipodi:docname="blanke.svg"
   xmlns:inkscape="http://www.inkscape.org/namespaces/inkscape"
   xmlns:sodipodi="http://sodipodi.sourceforge.net/DTD/sodipodi-0.dtd"
   xmlns="http://www.w3.org/2000/svg"
   xmlns:svg="http://www.w3.org/2000/svg">
  <sodipodi:namedview
     id="namedview7"
     pagecolor="#505050"
     bordercolor="#eeeeee"
     borderopacity="1"
     inkscape:pageshadow="0"
     inkscape:pageopacity="0"
     inkscape:pagecheckerboard="0"
     inkscape:document-units="mm"
     showgrid="false"
     inkscape:zoom="0.31090769"
     inkscape:cx="1145.0344"
     inkscape:cy="-184.94235"
     inkscape:window-width="1920"
     inkscape:window-height="987"
     inkscape:window-x="-9"
     inkscape:window-y="-9"
     inkscape:window-maximized="1"
     inkscape:current-layer="layer1" />
  <defs
     id="defs2">
    <rect
       x="622.50403"
       y="-568"
       width="2085.4958"
       height="476"
       id="rect20081" />
    <clipPath
       clipPathUnits="userSpaceOnUse"
       id="clipPath17454">
      <path
         id="path17456"
         style="display:none;fill:#ffffff;stroke-width:5.49899;stroke-linecap:round;stroke-linejoin:round;paint-order:fill markers stroke"
         inkscape:transform-center-x="0.00048313775"
         inkscape:transform-center-y="-33.220714"
         d="m 91.77491,946.79685 c 4.932839,-3.58391 4.696566,-21.87072 10.79389,-21.87072 6.09732,0 5.861,18.28684 10.79381,21.87075 4.93284,3.58391 22.25162,-2.29174 24.13579,3.50718 1.88418,5.79888 -15.58065,11.22506 -17.46485,17.02396 -1.88418,5.7989 9.05571,20.45435 4.12287,24.03827 -4.93284,3.58391 -15.49038,-11.34936 -21.5877,-11.34936 -6.097323,0 -16.654886,14.93322 -21.587725,11.3493 -4.932812,-3.58391 6.0071,-18.23937 4.122923,-24.03827 -1.884178,-5.79887 -19.348977,-11.2251 -17.464797,-17.024 1.884183,-5.7989 19.20295,0.0768 24.135789,-3.50711 z" />
      <path
         id="lpe_path-effect17458"
         style="fill:#ffffff;stroke-width:5.49899;stroke-linecap:round;stroke-linejoin:round;paint-order:fill markers stroke"
         class="powerclip"
         d="M 44.439899,894.7263 H 160.69763 v 132.6959 H 44.439899 Z m 47.335011,52.07055 c -4.932839,3.58391 -22.251606,-2.29179 -24.135789,3.50711 -1.88418,5.7989 15.580619,11.22513 17.464797,17.024 1.884177,5.7989 -9.055735,20.45436 -4.122923,24.03827 4.932839,3.58392 15.490402,-11.3493 21.587725,-11.3493 6.09732,0 16.65486,14.93327 21.5877,11.34936 4.93284,-3.58392 -6.00705,-18.23937 -4.12287,-24.03827 1.8842,-5.7989 19.34903,-11.22508 17.46485,-17.02396 -1.88417,-5.79892 -19.20295,0.0767 -24.13579,-3.50718 -4.93281,-3.58391 -4.69649,-21.87075 -10.79381,-21.87075 -6.097324,0 -5.861051,18.28681 -10.79389,21.87072 z" />
    </clipPath>
    <inkscape:path-effect
       effect="powerclip"
       id="path-effect17458"
       is_visible="true"
       lpeversion="1"
       inverse="true"
       flatten="false"
       hide_clip="false"
       message="Füllregel Gerade-Ungerade im &lt;b&gt;Füllung und Kontur&lt;/b&gt;-Dialog verwenden, wenn das Anwenden des Ausschnitts mit nachfolgendem Umwandeln in Pfade kein Ergebnis bringt" />
    <rect
       x="622.50403"
       y="-568"
       width="2085.4958"
       height="476"
       id="rect32590" />
  </defs>
  <g
     inkscape:label="Ebene 1"
     inkscape:groupmode="layer"
     id="layer1"
     transform="translate(153.91868,-190.47314)">
    <path
       style="fill:#ffffff;fill-opacity:1;stroke:none;stroke-width:0.264583px;stroke-linecap:butt;stroke-linejoin:miter;stroke-opacity:1"
       d="m 102.56893,1022.4222 53.1287,-30.67395 -5.3e-4,-61.34795 -53.1283,-30.674 -53.128901,30.674 v 61.34795 z"
       id="path17405"
       clip-path="url(#clipPath17454)"
       inkscape:path-effect="#path-effect17458"
       inkscape:original-d="m 102.56893,1022.4222 53.1287,-30.67395 -5.3e-4,-61.34795 -53.1283,-30.674 -53.128901,30.674 v 61.34795 z"
       inkscape:export-filename="C:\Users\Jonas\Desktop\Jonizulo\EsperoNova\emblemoj\emblemo kun teksto\blanke.png"
       inkscape:export-xdpi="107.64825"
       inkscape:export-ydpi="107.64825"
       transform="translate(-203.35858,-709.25316)" />
    <g
       aria-label="EsperoNova"
       transform="matrix(0.4529658,0,0,0.4529658,-295.2059,460.26594)"
       id="text32588"
       style="font-size:192px;line-height:1.25;white-space:pre;shape-inside:url(#rect32590);fill:#ffffff">
      <path
         d="m 660.90391,-417.68808 v -31.488 h 47.232 v -24.192 h -47.232 v -30.336 h 51.648 v -24.192 h -77.568 v 134.4 h 79.296 v -24.192 z"
         style="font-weight:500;font-family:'MADE TOMMY';-inkscape-font-specification:'MADE TOMMY Medium'"
         id="path1422" />
      <path
         d="m 774.56768,-451.67208 c -7.68,-1.728 -20.736,-2.304 -20.736,-10.944 0,-7.296 7.296,-9.984 14.4,-9.984 9.216,0 14.016,4.992 15.168,9.984 l 22.08,-5.376 c -4.032,-16.896 -20.544,-25.152 -37.248,-25.152 -22.848,0 -38.208,12.096 -38.208,30.528 0,16.704 9.6,25.728 28.416,29.568 11.52,2.496 25.536,2.112 25.536,11.328 0,6.528 -5.76,10.176 -15.936,10.176 -14.208,0 -18.048,-6.528 -18.816,-10.56 l -23.424,7.296 c 4.416,16.32 23.232,23.808 41.856,23.808 27.264,0 41.28,-13.248 41.28,-32.448 0,-16.512 -10.56,-23.04 -34.368,-28.224 z"
         style="font-weight:500;font-family:'MADE TOMMY';-inkscape-font-specification:'MADE TOMMY Medium'"
         id="path1424" />
      <path
         d="m 880.5516,-493.14408 c -14.976,0 -24.768,5.76 -30.912,13.824 v -11.52 h -24.384 v 134.4 h 24.384 v -48.384 c 6.144,7.872 15.936,13.824 30.912,13.824 30.336,0 47.616,-25.536 47.616,-51.072 0,-25.536 -17.28,-51.072 -47.616,-51.072 z m -3.648,78.72 c -16.896,0 -26.304,-12.672 -26.304,-27.648 0,-14.976 9.408,-27.648 26.304,-27.648 16.704,0 26.304,12.672 26.304,27.648 0,14.976 -9.6,27.648 -26.304,27.648 z"
         style="font-weight:500;font-family:'MADE TOMMY';-inkscape-font-specification:'MADE TOMMY Medium'"
         id="path1426" />
      <path
         d="m 989.41549,-493.14408 c -26.88,0 -49.728,20.544 -49.728,51.072 0,29.568 21.312,51.072 53.568,51.072 18.43201,0 33.40801,-8.832 41.28001,-19.776 l -19.584,-11.52 c -2.88,3.648 -10.56,9.6 -21.69601,9.6 -13.44,0 -24.192,-6.912 -27.648,-19.968 h 72.19201 c 4.416,-38.4 -19.008,-60.48 -48.38401,-60.48 z m -23.808,41.664 c 2.88,-12.48 12.288,-19.968 24.192,-19.968 13.05601,0 21.69601,7.296 24.19201,19.968 z"
         style="font-weight:500;font-family:'MADE TOMMY';-inkscape-font-specification:'MADE TOMMY Medium'"
         id="path1428" />
      <path
         d="m 1080.0394,-474.90408 v -15.936 h -24.384 v 97.344 h 24.384 v -40.128 c 0,-18.048 3.648,-36.48 32.448,-33.024 v -26.496 c -11.712,0 -25.152,6.144 -32.448,18.24 z"
         style="font-weight:500;font-family:'MADE TOMMY';-inkscape-font-specification:'MADE TOMMY Medium'"
         id="path1430" />
      <path
         d="m 1173.3513,-493.14408 c -29.184,0 -51.264,22.464 -51.264,51.072 0,28.416 22.08,51.072 51.264,51.072 29.376,0 51.456,-22.656 51.456,-51.072 0,-28.608 -22.08,-51.072 -51.456,-51.072 z m 0,78.72 c -16.128,0 -26.304,-12.48 -26.304,-27.648 0,-15.168 10.176,-27.648 26.304,-27.648 16.32,0 26.496,12.48 26.496,27.648 0,15.168 -10.176,27.648 -26.496,27.648 z"
         style="font-weight:500;font-family:'MADE TOMMY';-inkscape-font-specification:'MADE TOMMY Medium'"
         id="path1432" />
      <path
         d="m 1326.1831,-527.89608 v 88.896 l -59.52,-88.896 h -23.616 v 134.4 h 26.112 v -88.896 l 59.52,88.896 h 23.616 v -134.4 z"
         style="font-weight:500;font-family:'MADE TOMMY';-inkscape-font-specification:'MADE TOMMY Medium'"
         id="path1434" />
      <path
         d="m 1421.799,-493.14408 c -29.184,0 -51.264,22.464 -51.264,51.072 0,28.416 22.08,51.072 51.264,51.072 29.376,0 51.456,-22.656 51.456,-51.072 0,-28.608 -22.08,-51.072 -51.456,-51.072 z m 0,78.72 c -16.128,0 -26.304,-12.48 -26.304,-27.648 0,-15.168 10.176,-27.648 26.304,-27.648 16.32,0 26.496,12.48 26.496,27.648 0,15.168 -10.176,27.648 -26.496,27.648 z"
         style="font-weight:500;font-family:'MADE TOMMY';-inkscape-font-specification:'MADE TOMMY Medium'"
         id="path1436" />
      <path
         d="m 1550.6308,-490.84008 -23.232,69.12 -23.04,-69.12 h -26.304 l 36.096,97.344 h 26.688 l 36.096,-97.344 z"
         style="font-weight:500;font-family:'MADE TOMMY';-inkscape-font-specification:'MADE TOMMY Medium'"
         id="path1438" />
      <path
         d="m 1626.0863,-493.14408 c -16.32,0 -29.76,5.952 -40.512,15.744 l 16.704,12.672 c 3.648,-2.496 11.52,-7.104 20.352,-7.104 14.976,0 19.968,6.144 20.16,20.16 -2.304,0 -6.72,0 -10.56,0 -12.864,0 -52.416,0 -52.416,32.064 0,20.736 19.968,28.608 34.56,28.608 13.056,0 23.808,-5.376 28.416,-12.864 v 10.368 h 24.384 v -58.752 c 0,-23.232 -10.176,-40.896 -41.088,-40.896 z m 16.704,73.344 c -2.112,4.032 -8.64,11.136 -21.12,11.136 -12.096,0 -16.896,-5.952 -16.896,-13.248 0,-14.592 19.008,-14.4 36.48,-14.4 0.384,0 0.96,0 1.536,0 z"
         style="font-weight:500;font-family:'MADE TOMMY';-inkscape-font-specification:'MADE TOMMY Medium'"
         id="path1440" />
    </g>
  </g>
</svg>
