<?xml version="1.0" encoding="UTF-8" standalone="no"?>
<!-- Created with Inkscape (http://www.inkscape.org/) -->

<svg
   width="613.88574mm"
   height="122.69593mm"
   viewBox="0 0 613.88574 122.69593"
   version="1.1"
   id="svg5"
   inkscape:export-filename="C:\Users\Jonas\Desktop\Jonizulo\EsperoNova\emblemoj\emblemo kun teksto\kolore nigre.png"
   inkscape:export-xdpi="103.50792"
   inkscape:export-ydpi="103.50792"
   inkscape:version="1.1.1 (3bf5ae0d25, 2021-09-20)"
   sodipodi:docname="kolore nigre.svg"
   xmlns:inkscape="http://www.inkscape.org/namespaces/inkscape"
   xmlns:sodipodi="http://sodipodi.sourceforge.net/DTD/sodipodi-0.dtd"
   xmlns:xlink="http://www.w3.org/1999/xlink"
   xmlns="http://www.w3.org/2000/svg"
   xmlns:svg="http://www.w3.org/2000/svg">
  <sodipodi:namedview
     id="namedview7"
     pagecolor="#505050"
     bordercolor="#eeeeee"
     borderopacity="1"
     inkscape:pageshadow="0"
     inkscape:pageopacity="0"
     inkscape:pagecheckerboard="0"
     inkscape:document-units="mm"
     showgrid="false"
     inkscape:zoom="0.43968987"
     inkscape:cx="1307.7399"
     inkscape:cy="142.14564"
     inkscape:window-width="1920"
     inkscape:window-height="987"
     inkscape:window-x="-9"
     inkscape:window-y="-9"
     inkscape:window-maximized="1"
     inkscape:current-layer="layer1" />
  <defs
     id="defs2">
    <linearGradient
       inkscape:collect="always"
       xlink:href="#linearGradient9776"
       id="linearGradient50242"
       gradientUnits="userSpaceOnUse"
       gradientTransform="matrix(1,0,0,-1,-244.47589,275.96755)"
       x1="102.56862"
       y1="180.73096"
       x2="102.56893"
       y2="58.035057" />
    <linearGradient
       inkscape:collect="always"
       id="linearGradient9776">
      <stop
         style="stop-color:#5500d4;stop-opacity:1"
         offset="0"
         id="stop9772" />
      <stop
         style="stop-color:#ff0066;stop-opacity:1"
         offset="1"
         id="stop9774" />
    </linearGradient>
    <rect
       x="622.50403"
       y="-568"
       width="2085.4958"
       height="476"
       id="rect20081" />
  </defs>
  <g
     inkscape:label="Ebene 1"
     inkscape:groupmode="layer"
     id="layer1"
     transform="translate(195.03599,-95.23656)">
    <g
       aria-label="EsperoNova"
       transform="matrix(0.4529658,0,0,0.4529658,-336.32321,365.02932)"
       id="text20079"
       style="font-size:192px;line-height:1.25;white-space:pre;shape-inside:url(#rect20081);fill:#000000">
      <path
         d="m 660.90391,-417.68808 v -31.488 h 47.232 v -24.192 h -47.232 v -30.336 h 51.648 v -24.192 h -77.568 v 134.4 h 79.296 v -24.192 z"
         style="font-weight:500;font-family:'MADE TOMMY';-inkscape-font-specification:'MADE TOMMY Medium';fill:#000000"
         id="path890" />
      <path
         d="m 774.56768,-451.67208 c -7.68,-1.728 -20.736,-2.304 -20.736,-10.944 0,-7.296 7.296,-9.984 14.4,-9.984 9.216,0 14.016,4.992 15.168,9.984 l 22.08,-5.376 c -4.032,-16.896 -20.544,-25.152 -37.248,-25.152 -22.848,0 -38.208,12.096 -38.208,30.528 0,16.704 9.6,25.728 28.416,29.568 11.52,2.496 25.536,2.112 25.536,11.328 0,6.528 -5.76,10.176 -15.936,10.176 -14.208,0 -18.048,-6.528 -18.816,-10.56 l -23.424,7.296 c 4.416,16.32 23.232,23.808 41.856,23.808 27.264,0 41.28,-13.248 41.28,-32.448 0,-16.512 -10.56,-23.04 -34.368,-28.224 z"
         style="font-weight:500;font-family:'MADE TOMMY';-inkscape-font-specification:'MADE TOMMY Medium';fill:#000000"
         id="path892" />
      <path
         d="m 880.5516,-493.14408 c -14.976,0 -24.768,5.76 -30.912,13.824 v -11.52 h -24.384 v 134.4 h 24.384 v -48.384 c 6.144,7.872 15.936,13.824 30.912,13.824 30.336,0 47.616,-25.536 47.616,-51.072 0,-25.536 -17.28,-51.072 -47.616,-51.072 z m -3.648,78.72 c -16.896,0 -26.304,-12.672 -26.304,-27.648 0,-14.976 9.408,-27.648 26.304,-27.648 16.704,0 26.304,12.672 26.304,27.648 0,14.976 -9.6,27.648 -26.304,27.648 z"
         style="font-weight:500;font-family:'MADE TOMMY';-inkscape-font-specification:'MADE TOMMY Medium';fill:#000000"
         id="path894" />
      <path
         d="m 989.41549,-493.14408 c -26.88,0 -49.728,20.544 -49.728,51.072 0,29.568 21.312,51.072 53.568,51.072 18.43201,0 33.40801,-8.832 41.28001,-19.776 l -19.584,-11.52 c -2.88,3.648 -10.56,9.6 -21.69601,9.6 -13.44,0 -24.192,-6.912 -27.648,-19.968 h 72.19201 c 4.416,-38.4 -19.008,-60.48 -48.38401,-60.48 z m -23.808,41.664 c 2.88,-12.48 12.288,-19.968 24.192,-19.968 13.05601,0 21.69601,7.296 24.19201,19.968 z"
         style="font-weight:500;font-family:'MADE TOMMY';-inkscape-font-specification:'MADE TOMMY Medium';fill:#000000"
         id="path896" />
      <path
         d="m 1080.0394,-474.90408 v -15.936 h -24.384 v 97.344 h 24.384 v -40.128 c 0,-18.048 3.648,-36.48 32.448,-33.024 v -26.496 c -11.712,0 -25.152,6.144 -32.448,18.24 z"
         style="font-weight:500;font-family:'MADE TOMMY';-inkscape-font-specification:'MADE TOMMY Medium';fill:#000000"
         id="path898" />
      <path
         d="m 1173.3513,-493.14408 c -29.184,0 -51.264,22.464 -51.264,51.072 0,28.416 22.08,51.072 51.264,51.072 29.376,0 51.456,-22.656 51.456,-51.072 0,-28.608 -22.08,-51.072 -51.456,-51.072 z m 0,78.72 c -16.128,0 -26.304,-12.48 -26.304,-27.648 0,-15.168 10.176,-27.648 26.304,-27.648 16.32,0 26.496,12.48 26.496,27.648 0,15.168 -10.176,27.648 -26.496,27.648 z"
         style="font-weight:500;font-family:'MADE TOMMY';-inkscape-font-specification:'MADE TOMMY Medium';fill:#000000"
         id="path900" />
      <path
         d="m 1326.1831,-527.89608 v 88.896 l -59.52,-88.896 h -23.616 v 134.4 h 26.112 v -88.896 l 59.52,88.896 h 23.616 v -134.4 z"
         style="font-weight:500;font-family:'MADE TOMMY';-inkscape-font-specification:'MADE TOMMY Medium';fill:#000000"
         id="path902" />
      <path
         d="m 1421.799,-493.14408 c -29.184,0 -51.264,22.464 -51.264,51.072 0,28.416 22.08,51.072 51.264,51.072 29.376,0 51.456,-22.656 51.456,-51.072 0,-28.608 -22.08,-51.072 -51.456,-51.072 z m 0,78.72 c -16.128,0 -26.304,-12.48 -26.304,-27.648 0,-15.168 10.176,-27.648 26.304,-27.648 16.32,0 26.496,12.48 26.496,27.648 0,15.168 -10.176,27.648 -26.496,27.648 z"
         style="font-weight:500;font-family:'MADE TOMMY';-inkscape-font-specification:'MADE TOMMY Medium';fill:#000000"
         id="path904" />
      <path
         d="m 1550.6308,-490.84008 -23.232,69.12 -23.04,-69.12 h -26.304 l 36.096,97.344 h 26.688 l 36.096,-97.344 z"
         style="font-weight:500;font-family:'MADE TOMMY';-inkscape-font-specification:'MADE TOMMY Medium';fill:#000000"
         id="path906" />
      <path
         d="m 1626.0863,-493.14408 c -16.32,0 -29.76,5.952 -40.512,15.744 l 16.704,12.672 c 3.648,-2.496 11.52,-7.104 20.352,-7.104 14.976,0 19.968,6.144 20.16,20.16 -2.304,0 -6.72,0 -10.56,0 -12.864,0 -52.416,0 -52.416,32.064 0,20.736 19.968,28.608 34.56,28.608 13.056,0 23.808,-5.376 28.416,-12.864 v 10.368 h 24.384 v -58.752 c 0,-23.232 -10.176,-40.896 -41.088,-40.896 z m 16.704,73.344 c -2.112,4.032 -8.64,11.136 -21.12,11.136 -12.096,0 -16.896,-5.952 -16.896,-13.248 0,-14.592 19.008,-14.4 36.48,-14.4 0.384,0 0.96,0 1.536,0 z"
         style="font-weight:500;font-family:'MADE TOMMY';-inkscape-font-specification:'MADE TOMMY Medium';fill:#000000"
         id="path908" />
    </g>
    <path
       style="fill:url(#linearGradient50242);fill-opacity:1;stroke:none;stroke-width:0.264583px;stroke-linecap:butt;stroke-linejoin:miter;stroke-opacity:1"
       d="m -141.90696,217.93249 53.1287,-30.67398 -5.3e-4,-61.34795 -53.1283,-30.674 -53.1289,30.674 v 61.34795 z"
       id="path50232"
       inkscape:export-filename="C:\Users\Jonas\Desktop\Jonizulo\EsperoNova\emblemoj\emblemo kun teksto\kolore blanke.png"
       inkscape:export-xdpi="103.50792"
       inkscape:export-ydpi="103.50792" />
    <path
       id="path50238"
       style="fill:#ffffff;stroke-width:5.499;stroke-linecap:round;stroke-linejoin:round;paint-order:fill markers stroke"
       inkscape:transform-center-x="0.00048313775"
       inkscape:transform-center-y="-33.220714"
       d="m -152.70098,142.30716 c 4.93284,-3.58391 4.69657,-21.87073 10.79388,-21.87072 6.09732,0 5.861,18.28682 10.79383,21.87074 4.93283,3.58392 22.25161,-2.29173 24.13578,3.50717 1.88417,5.79889 -15.58066,11.22508 -17.46484,17.02397 -1.88418,5.79889 9.05569,20.45436 4.12286,24.03827 -4.93284,3.5839 -15.49038,-11.34935 -21.5877,-11.34936 -6.09731,-1e-5 -16.65489,14.93322 -21.58771,11.3493 -4.93283,-3.58392 6.00708,-18.23936 4.12291,-24.03826 -1.88417,-5.79889 -19.34898,-11.22512 -17.4648,-17.02401 1.88418,-5.79889 19.20296,0.0768 24.13579,-3.5071 z"
       inkscape:export-filename="C:\Users\Jonas\Desktop\Jonizulo\EsperoNova\emblemoj\emblemo kun teksto\kolore blanke.png"
       inkscape:export-xdpi="103.50792"
       inkscape:export-ydpi="103.50792" />
  </g>
</svg>
