<?xml version="1.0" encoding="UTF-8" standalone="no"?>
<!-- Created with Inkscape (http://www.inkscape.org/) -->

<svg
   width="106.25773mm"
   height="122.6959mm"
   viewBox="0 0 106.25773 122.6959"
   version="1.1"
   id="svg5"
   inkscape:version="1.1.1 (3bf5ae0d25, 2021-09-20)"
   sodipodi:docname="nigre.svg"
   inkscape:export-filename="C:\Users\Jonas\Desktop\Jonizulo\EsperoNova\emblemoj\heksagonoj\nigre.png"
   inkscape:export-xdpi="414.03143"
   inkscape:export-ydpi="414.03143"
   xmlns:inkscape="http://www.inkscape.org/namespaces/inkscape"
   xmlns:sodipodi="http://sodipodi.sourceforge.net/DTD/sodipodi-0.dtd"
   xmlns="http://www.w3.org/2000/svg"
   xmlns:svg="http://www.w3.org/2000/svg">
  <sodipodi:namedview
     id="namedview7"
     pagecolor="#505050"
     bordercolor="#eeeeee"
     borderopacity="1"
     inkscape:pageshadow="0"
     inkscape:pageopacity="0"
     inkscape:pagecheckerboard="0"
     inkscape:document-units="mm"
     showgrid="false"
     inkscape:zoom="0.62181538"
     inkscape:cx="155.99485"
     inkscape:cy="95.687566"
     inkscape:window-width="1920"
     inkscape:window-height="987"
     inkscape:window-x="-9"
     inkscape:window-y="-9"
     inkscape:window-maximized="1"
     inkscape:current-layer="layer1" />
  <defs
     id="defs2">
    <clipPath
       clipPathUnits="userSpaceOnUse"
       id="clipath_lpe_path-effect1849">
      <path
         id="path1851"
         style="display:none;fill:#ffffff;stroke-width:5.49899;stroke-linecap:round;stroke-linejoin:round;paint-order:fill markers stroke"
         inkscape:transform-center-x="0.00048313775"
         inkscape:transform-center-y="-33.220714"
         d="m 91.77491,946.79685 c 4.932839,-3.58391 4.696566,-21.87072 10.79389,-21.87072 6.09732,0 5.861,18.28684 10.79381,21.87075 4.93284,3.58391 22.25162,-2.29174 24.13579,3.50718 1.88418,5.79888 -15.58065,11.22506 -17.46485,17.02396 -1.88418,5.7989 9.05571,20.45435 4.12287,24.03827 -4.93284,3.58391 -15.49038,-11.34936 -21.5877,-11.34936 -6.097323,0 -16.654886,14.93322 -21.587725,11.3493 -4.932812,-3.58391 6.0071,-18.23937 4.122923,-24.03827 -1.884178,-5.79887 -19.348977,-11.2251 -17.464797,-17.024 1.884183,-5.7989 19.20295,0.0768 24.135789,-3.50711 z" />
      <path
         id="lpe_path-effect1849"
         style="fill:#ffffff;stroke-width:5.49899;stroke-linecap:round;stroke-linejoin:round;paint-order:fill markers stroke"
         class="powerclip"
         d="M 44.439899,894.7263 H 160.69763 v 132.6959 H 44.439899 Z m 47.335011,52.07055 c -4.932839,3.58391 -22.251606,-2.29179 -24.135789,3.50711 -1.88418,5.7989 15.580619,11.22513 17.464797,17.024 1.884177,5.7989 -9.055735,20.45436 -4.122923,24.03827 4.932839,3.58392 15.490402,-11.3493 21.587725,-11.3493 6.09732,0 16.65486,14.93327 21.5877,11.34936 4.93284,-3.58392 -6.00705,-18.23937 -4.12287,-24.03827 1.8842,-5.7989 19.34903,-11.22508 17.46485,-17.02396 -1.88417,-5.79892 -19.20295,0.0767 -24.13579,-3.50718 -4.93281,-3.58391 -4.69649,-21.87075 -10.79381,-21.87075 -6.097324,0 -5.861051,18.28681 -10.79389,21.87072 z" />
    </clipPath>
    <inkscape:path-effect
       effect="powerclip"
       id="path-effect1849"
       is_visible="true"
       lpeversion="1"
       inverse="true"
       flatten="false"
       hide_clip="false"
       message="Füllregel Gerade-Ungerade im &lt;b&gt;Füllung und Kontur&lt;/b&gt;-Dialog verwenden, wenn das Anwenden des Ausschnitts mit nachfolgendem Umwandeln in Pfade kein Ergebnis bringt" />
  </defs>
  <g
     inkscape:label="Ebene 1"
     inkscape:groupmode="layer"
     id="layer1"
     transform="translate(-32.455739,-73.88571)">
    <path
       style="fill:#000000;fill-opacity:1;stroke:none;stroke-width:0.264583px;stroke-linecap:butt;stroke-linejoin:miter;stroke-opacity:1"
       d="m 102.56893,1022.4222 53.1287,-30.67395 -5.3e-4,-61.34795 -53.1283,-30.674 -53.128901,30.674 v 61.34795 z"
       id="path1845"
       clip-path="url(#clipath_lpe_path-effect1849)"
       inkscape:path-effect="#path-effect1849"
       inkscape:original-d="m 102.56893,1022.4222 53.1287,-30.67395 -5.3e-4,-61.34795 -53.1283,-30.674 -53.128901,30.674 v 61.34795 z"
       inkscape:export-filename="C:\Users\Jonas\Desktop\desegno.png"
       inkscape:export-xdpi="22.338326"
       inkscape:export-ydpi="22.338326"
       transform="translate(-16.98416,-825.84059)" />
  </g>
</svg>
